module kurayami-backend/server

go 1.20

require (
	github.com/georgysavva/scany/v2 v2.0.0 // indirect
	github.com/golang-jwt/jwt v3.2.2+incompatible // indirect
	github.com/google/uuid v1.3.0 // indirect
	github.com/gorilla/mux v1.8.0 // indirect
	github.com/jackc/pgpassfile v1.0.0 // indirect
	github.com/jackc/pgservicefile v0.0.0-20221227161230-091c0ba34f0a // indirect
	github.com/jackc/pgx/v5 v5.3.1 // indirect
	github.com/jackc/puddle/v2 v2.2.0 // indirect
	github.com/joho/godotenv v1.5.1 // indirect
	golang.org/x/crypto v0.8.0 // indirect
	golang.org/x/sync v0.1.0 // indirect
	golang.org/x/text v0.9.0 // indirect
)
